@startuml

package "HR" as target_system {
    entity "社員" as employee  {
    }

    entity "部門" as department {
    }
}

department |o--o{ employee

@enduml



@startuml

package "HR" as target_system {
    entity "社員" as employee  {
    }

    entity "部門" as department {
    }
}

department ||--o{ employee

@enduml

@startuml

package "HR" as target_system {
    entity "社員" as employee  {
    }

    entity "部門" as department {
    }
}

department ||--|{ employee

@enduml

@startuml

package "HR" as target_system {
    entity "社員" as employee  {
    }

    entity "部門" as department {
    }
}

department }o--o{ employee

@enduml