@startuml


    entity "商品分野" as bunya {
        + 商品分野コード [PK]
        --
        商品分野名
    }

    entity "商品" as goods {
        + 商品コード [PK]
        --
        商品名
        # 商品分野コード[FK]
        # 対象者コード[FK]
    }

    entity "対象者層" as target {
        + 対象者コード[PK]
        --
        対象者名
    }



bunya          |o-ri-o{     goods
goods     }o-ri-o|     target

@enduml
